4 Basic Data Cleaning and Preparation Tasks | R Primer for Social Scientists
…
            R Primer for Social Scientists

4 Basic Data Cleaning and Preparation Tasks

4.1 Rearranging columns

pt_copy

## # A tibble: 85 × 75
##     oecd country   pind pindo ctrycd col_uk t_indep col_uka col_espa col_otha legor_uk legor_so legor_fr legor_ge
##    <dbl> <chr>    <dbl> <dbl>  <dbl>  <dbl>   <dbl>   <dbl>    <dbl>    <dbl>    <dbl>    <dbl>    <dbl>    <dbl>
##  1     0 Argenti… 0     0        213      0     183   0        0.268    0            0        0        1        0
##  2     1 Austral… 1     1        193      1      98   0.608    0        0            1        0        0        0
##  3     1 Austria  0     0        122      0     250   0        0        0            0        0        0        1
##  4     0 Bahamas  1     1        313      1      26   0.896    0        0            1        0        0        0
##  5     0 Banglad… 1     1        513      0      28   0        0        0.888        1        0        0        0
##  6     0 Barbados 1     1        316      1      33   0.868    0        0            1        0        0        0
##  7     0 Belarus  1     1        913      0       8   0        0        0.968        0        1        0        0
##  8     1 Belgium  0     0        124      0     169   0        0        0.324        0        0        1        0
##  9     0 Belize   1     1        339      1      18   0.928    0        0            1        0        0        0
## 10     0 Bolivia  0.116 0.116    218      0     174   0        0.304    0            0        0        1        0
## # … with 75 more rows, and 61 more variables: legor_sc <dbl>, prot80 <dbl>, catho80 <dbl>, confu <dbl>,
## #   avelf <dbl>, govef <dbl>, graft <dbl>, logyl <dbl>, loga <dbl>, yrsopen <dbl>, gadp <dbl>, engfrac <dbl>,
## #   eurfrac <dbl>, frankrom <dbl>, latitude <dbl>, gastil <dbl>, cgexp <dbl>, cgrev <dbl>, ssw <dbl>,
## #   rgdph <dbl>, trade <dbl>, prop1564 <dbl>, prop65 <dbl>, federal <dbl>, eduger <dbl>, spropn <dbl>,
## #   yearele <dbl>, yearreg <dbl>, seats <dbl>, maj <dbl>, pres <dbl>, lyp <dbl>, semi <dbl>, majpar <dbl>,
## #   majpres <dbl>, propres <dbl>, dem_age <dbl>, lat01 <dbl>, age <dbl>, polityIV <dbl>, spl <dbl>,
## #   cpi9500 <dbl>, du_60ctry <dbl>, magn <dbl>, sdm <dbl>, oecd.x <dbl>, mining_gdp <dbl>, gini_8090 <dbl>, …

# bring the "country" column to the front of the dataset
pt_copy<-pt_copy %>% relocate(country)
pt_copy

## # A tibble: 85 × 75
##    country   oecd  pind pindo ctrycd col_uk t_indep col_uka col_espa col_otha legor_uk legor_so legor_fr legor_ge
##    <chr>    <dbl> <dbl> <dbl>  <dbl>  <dbl>   <dbl>   <dbl>    <dbl>    <dbl>    <dbl>    <dbl>    <dbl>    <dbl>
##  1 Argenti…     0 0     0        213      0     183   0        0.268    0            0        0        1        0
##  2 Austral…     1 1     1        193      1      98   0.608    0        0            1        0        0        0
##  3 Austria      1 0     0        122      0     250   0        0        0            0        0        0        1
##  4 Bahamas      0 1     1        313      1      26   0.896    0        0            1        0        0        0
##  5 Banglad…     0 1     1        513      0      28   0        0        0.888        1        0        0        0
##  6 Barbados     0 1     1        316      1      33   0.868    0        0            1        0        0        0
##  7 Belarus      0 1     1        913      0       8   0        0        0.968        0        1        0        0
##  8 Belgium      1 0     0        124      0     169   0        0        0.324        0        0        1        0
##  9 Belize       0 1     1        339      1      18   0.928    0        0            1        0        0        0
## 10 Bolivia      0 0.116 0.116    218      0     174   0        0.304    0            0        0        1        0
## # … with 75 more rows, and 61 more variables: legor_sc <dbl>, prot80 <dbl>, catho80 <dbl>, confu <dbl>,
## #   avelf <dbl>, govef <dbl>, graft <dbl>, logyl <dbl>, loga <dbl>, yrsopen <dbl>, gadp <dbl>, engfrac <dbl>,
## #   eurfrac <dbl>, frankrom <dbl>, latitude <dbl>, gastil <dbl>, cgexp <dbl>, cgrev <dbl>, ssw <dbl>,
## #   rgdph <dbl>, trade <dbl>, prop1564 <dbl>, prop65 <dbl>, federal <dbl>, eduger <dbl>, spropn <dbl>,
## #   yearele <dbl>, yearreg <dbl>, seats <dbl>, maj <dbl>, pres <dbl>, lyp <dbl>, semi <dbl>, majpar <dbl>,
## #   majpres <dbl>, propres <dbl>, dem_age <dbl>, lat01 <dbl>, age <dbl>, polityIV <dbl>, spl <dbl>,
## #   cpi9500 <dbl>, du_60ctry <dbl>, magn <dbl>, sdm <dbl>, oecd.x <dbl>, mining_gdp <dbl>, gini_8090 <dbl>, …

pt_copy<-pt_copy %>% relocate(country, list, oecd)

pt_copy

## # A tibble: 85 × 75
##    country     list  oecd  pind pindo ctrycd col_uk t_indep col_uka col_espa col_otha legor_uk legor_so legor_fr
##    <chr>      <dbl> <dbl> <dbl> <dbl>  <dbl>  <dbl>   <dbl>   <dbl>    <dbl>    <dbl>    <dbl>    <dbl>    <dbl>
##  1 Argentina   257.     0 0     0        213      0     183   0        0.268    0            0        0        1
##  2 Australia     0      1 1     1        193      1      98   0.608    0        0            1        0        0
##  3 Austria     183      1 0     0        122      0     250   0        0        0            0        0        0
##  4 Bahamas       0      0 1     1        313      1      26   0.896    0        0            1        0        0
##  5 Bangladesh    0      0 1     1        513      0      28   0        0        0.888        1        0        0
##  6 Barbados      0      0 1     1        316      1      33   0.868    0        0            1        0        0
##  7 Belarus       0      0 1     1        913      0       8   0        0        0.968        0        1        0
##  8 Belgium     184.     1 0     0        124      0     169   0        0        0.324        0        0        1
##  9 Belize        0      0 1     1        339      1      18   0.928    0        0            1        0        0
## 10 Bolivia     115.     0 0.116 0.116    218      0     174   0        0.304    0            0        0        1
## # … with 75 more rows, and 61 more variables: legor_ge <dbl>, legor_sc <dbl>, prot80 <dbl>, catho80 <dbl>,
## #   confu <dbl>, avelf <dbl>, govef <dbl>, graft <dbl>, logyl <dbl>, loga <dbl>, yrsopen <dbl>, gadp <dbl>,
## #   engfrac <dbl>, eurfrac <dbl>, frankrom <dbl>, latitude <dbl>, gastil <dbl>, cgexp <dbl>, cgrev <dbl>,
## #   ssw <dbl>, rgdph <dbl>, trade <dbl>, prop1564 <dbl>, prop65 <dbl>, federal <dbl>, eduger <dbl>,
## #   spropn <dbl>, yearele <dbl>, yearreg <dbl>, seats <dbl>, maj <dbl>, pres <dbl>, lyp <dbl>, semi <dbl>,
## #   majpar <dbl>, majpres <dbl>, propres <dbl>, dem_age <dbl>, lat01 <dbl>, age <dbl>, polityIV <dbl>,
## #   spl <dbl>, cpi9500 <dbl>, du_60ctry <dbl>, magn <dbl>, sdm <dbl>, oecd.x <dbl>, mining_gdp <dbl>, …

4.2 Renaming variables

## Renaming a variable (renames "list" to "party_list")
pt_copy<-pt_copy %>% rename(party_list=list)

pt_copy

## # A tibble: 85 × 75
##    country    party_list  oecd  pind pindo ctrycd col_uk t_indep col_uka col_espa col_otha legor_uk legor_so
##    <chr>           <dbl> <dbl> <dbl> <dbl>  <dbl>  <dbl>   <dbl>   <dbl>    <dbl>    <dbl>    <dbl>    <dbl>
##  1 Argentina        257.     0 0     0        213      0     183   0        0.268    0            0        0
##  2 Australia          0      1 1     1        193      1      98   0.608    0        0            1        0
##  3 Austria          183      1 0     0        122      0     250   0        0        0            0        0
##  4 Bahamas            0      0 1     1        313      1      26   0.896    0        0            1        0
##  5 Bangladesh         0      0 1     1        513      0      28   0        0        0.888        1        0
##  6 Barbados           0      0 1     1        316      1      33   0.868    0        0            1        0
##  7 Belarus            0      0 1     1        913      0       8   0        0        0.968        0        1
##  8 Belgium          184.     1 0     0        124      0     169   0        0        0.324        0        0
##  9 Belize             0      0 1     1        339      1      18   0.928    0        0            1        0
## 10 Bolivia          115.     0 0.116 0.116    218      0     174   0        0.304    0            0        0
## # … with 75 more rows, and 62 more variables: legor_fr <dbl>, legor_ge <dbl>, legor_sc <dbl>, prot80 <dbl>,
## #   catho80 <dbl>, confu <dbl>, avelf <dbl>, govef <dbl>, graft <dbl>, logyl <dbl>, loga <dbl>, yrsopen <dbl>,
## #   gadp <dbl>, engfrac <dbl>, eurfrac <dbl>, frankrom <dbl>, latitude <dbl>, gastil <dbl>, cgexp <dbl>,
## #   cgrev <dbl>, ssw <dbl>, rgdph <dbl>, trade <dbl>, prop1564 <dbl>, prop65 <dbl>, federal <dbl>, eduger <dbl>,
## #   spropn <dbl>, yearele <dbl>, yearreg <dbl>, seats <dbl>, maj <dbl>, pres <dbl>, lyp <dbl>, semi <dbl>,
## #   majpar <dbl>, majpres <dbl>, propres <dbl>, dem_age <dbl>, lat01 <dbl>, age <dbl>, polityIV <dbl>,
## #   spl <dbl>, cpi9500 <dbl>, du_60ctry <dbl>, magn <dbl>, sdm <dbl>, oecd.x <dbl>, mining_gdp <dbl>, …
