2 Loading data | R Primer for Social Scientists
…
2.3 Make a copy of the dataset

# Make a copy of the dataset so we don't alter the original dataset; then, view
# the copied dataset 
pt_copy<-persson_tabellini_original

# Print contents of "pt_copy"
pt_copy

## # A tibble: 85 × 75
##     oecd country   pind pindo ctrycd col_uk t_indep col_uka col_espa col_otha legor_uk legor_so
##    <dbl> <chr>    <dbl> <dbl>  <dbl>  <dbl>   <dbl>   <dbl>    <dbl>    <dbl>    <dbl>    <dbl>
##  1     0 Argenti… 0     0        213      0     183   0        0.268    0            0        0
##  2     1 Austral… 1     1        193      1      98   0.608    0        0            1        0
##  3     1 Austria  0     0        122      0     250   0        0        0            0        0
##  4     0 Bahamas  1     1        313      1      26   0.896    0        0            1        0
##  5     0 Banglad… 1     1        513      0      28   0        0        0.888        1        0
##  6     0 Barbados 1     1        316      1      33   0.868    0        0            1        0
##  7     0 Belarus  1     1        913      0       8   0        0        0.968        0        1
##  8     1 Belgium  0     0        124      0     169   0        0        0.324        0        0
##  9     0 Belize   1     1        339      1      18   0.928    0        0            1        0
## 10     0 Bolivia  0.116 0.116    218      0     174   0        0.304    0            0        0
## # … with 75 more rows, and 63 more variables: legor_fr <dbl>, legor_ge <dbl>, legor_sc <dbl>,
## #   prot80 <dbl>, catho80 <dbl>, confu <dbl>, avelf <dbl>, govef <dbl>, graft <dbl>,
## #   logyl <dbl>, loga <dbl>, yrsopen <dbl>, gadp <dbl>, engfrac <dbl>, eurfrac <dbl>,
## #   frankrom <dbl>, latitude <dbl>, gastil <dbl>, cgexp <dbl>, cgrev <dbl>, ssw <dbl>,
## #   rgdph <dbl>, trade <dbl>, prop1564 <dbl>, prop65 <dbl>, federal <dbl>, eduger <dbl>,
## #   spropn <dbl>, yearele <dbl>, yearreg <dbl>, seats <dbl>, maj <dbl>, pres <dbl>, lyp <dbl>,
## #   semi <dbl>, majpar <dbl>, majpres <dbl>, propres <dbl>, dem_age <dbl>, lat01 <dbl>, …
…
